…
    ## 
    ## -- Column specification --------------------------------------------------------
    ## cols(
    ##   `Lea State` = col_character(),
    ##   LEA = col_character(),
    ##   ID = col_double(),
    ##   Sex = col_character(),
    ##   Total = col_double()
    ## )

``` r
chronic_absent
```

    ## # A tibble: 16,862 x 5
    ##    `Lea State` LEA                                    ID Sex   Total
    ##    <chr>       <chr>                               <dbl> <chr> <dbl>
    ##  1 MA          Pembroke                          2509420 M       315
    ##  2 MA          Pembroke                          2509420 F       286
    ##  3 VA          CUMBERLAND CO PBLC SCHS           5101080 M       113
    ##  4 VA          CUMBERLAND CO PBLC SCHS           5101080 F       110
    ##  5 VA          WILLIAMSBURG-JAMES CITY PBLC SCHS 5104020 M       700
    ##  6 VA          WILLIAMSBURG-JAMES CITY PBLC SCHS 5104020 F       539
    ##  7 MA          Walpole                           2511970 M       123
    ##  8 MA          Walpole                           2511970 F        97
    ##  9 MA          Chelmsford                        2503510 M       156
    ## 10 MA          Chelmsford                        2503510 F       163
    ## # ... with 16,852 more rows

Grouping the schools together.

``` r
chronic_absent_group <- group_by(chronic_absent, LEA, ID)
chronic_absent_group
```

    ## # A tibble: 16,862 x 5
    ## # Groups:   LEA, ID [8,431]
    ##    `Lea State` LEA                                    ID Sex   Total
    ##    <chr>       <chr>                               <dbl> <chr> <dbl>
    ##  1 MA          Pembroke                          2509420 M       315
    ##  2 MA          Pembroke                          2509420 F       286
    ##  3 VA          CUMBERLAND CO PBLC SCHS           5101080 M       113
    ##  4 VA          CUMBERLAND CO PBLC SCHS           5101080 F       110
    ##  5 VA          WILLIAMSBURG-JAMES CITY PBLC SCHS 5104020 M       700
    ##  6 VA          WILLIAMSBURG-JAMES CITY PBLC SCHS 5104020 F       539
    ##  7 MA          Walpole                           2511970 M       123
    ##  8 MA          Walpole                           2511970 F        97
    ##  9 MA          Chelmsford                        2503510 M       156
    ## 10 MA          Chelmsford                        2503510 F       163
    ## # ... with 16,852 more rows

Collapse the chronic absent data down to just one total for the entire
school district.

``` r
final_chronic_absent_data <- summarise(chronic_absent_group, Total_Absent = sum(Total))
```

    ## `summarise()` has grouped output by 'LEA'. You can override using the `.groups` argument.

``` r
final_chronic_absent_data
```

    ## # A tibble: 8,431 x 3
    ## # Groups:   LEA [8,257]
    ##    LEA                                  ID Total_Absent
    ##    <chr>                             <dbl>        <dbl>
    ##  1 A-C Central CUSD 262            1700105           75
    ##  2 A.C.G.C. PUBLIC SCHOOL DISTRICT 2700106           95
    ##  3 Abbotsford School District      5500030           38
    ##  4 ABC Unified                      601620         1603
    ##  5 ABERDEEN DISTRICT               1600030           38
    ##  6 ABERDEEN SCHOOL DIST            2800360          174
    ##  7 Aberdeen School District        5300030          884
    ##  8 Aberdeen School District 06-1   4602070          592
    ##  9 ABERNATHY ISD                   4807410           57
    ## 10 Abilene                         2003180          173
    ## # ... with 8,421 more rows
…
    ## 
    ## -- Column specification --------------------------------------------------------
    ## cols(
    ##   `Lea State` = col_character(),
    ##   LEA = col_character(),
    ##   ID = col_character(),
    ##   Sex = col_character(),
    ##   Total = col_double()
    ## )

``` r
suspension_data
```

    ## # A tibble: 18,494 x 5
    ##    `Lea State` LEA                    ID      Sex   Total
    ##    <chr>       <chr>                  <chr>   <chr> <dbl>
    ##  1 MA          Westford               2512660 M       121
    ##  2 MA          Westford               2512660 F         0
    ##  3 MA          Auburn                 2502220 M       181
    ##  4 MA          Auburn                 2502220 F        62
    ##  5 RI          Central Falls          4400120 M       147
    ##  6 RI          Central Falls          4400120 F        86
    ##  7 CT          SOMERS SCHOOL DISTRICT 904140  M        98
    ##  8 CT          SOMERS SCHOOL DISTRICT 904140  F        22
    ##  9 ME          RSU 40/MSAD 40         2311550 M       288
    ## 10 ME          RSU 40/MSAD 40         2311550 F       119
    ## # ... with 18,484 more rows
Grouping districts then summarizing the two genders for each district
down to one total number.

``` r
final_suspension_data <- suspension_data %>% group_by(LEA, ID) %>%
  summarise(Total_Suspended = sum(Total))
```

    ## `summarise()` has grouped output by 'LEA'. You can override using the `.groups` argument.

``` r
final_suspension_data
```

    ## # A tibble: 8,697 x 3
    ## # Groups:   LEA [8,522]
    ##    LEA                              ID      Total_Suspended
    ##    <chr>                            <chr>             <dbl>
    ##  1 A-C Central CUSD 262             1700105              54
    ##  2 A.C.G.C. PUBLIC SCHOOL DISTRICT  2700106              24
    ##  3 Abbeville County School District 4500690            1363
    ##  4 Abbotsford School District       5500030              60
    ##  5 ABC Unified                      601620             1478
    ##  6 ABERDEEN DISTRICT                1600030              44
    ##  7 ABERDEEN SCHOOL DIST             2800360            1429
    ##  8 Aberdeen School District         5300030             762
    ##  9 Aberdeen School District 06-1    4602070             752
    ## 10 ABERNATHY ISD                    4807410               3
    ## # ... with 8,687 more rows
…
    ## Warning: 6 parsing failures.
    ##   row col               expected  actual                file
    ##  3679  ID no trailing characters 06CC366 'cummalativeap.csv'
    ##  3680  ID no trailing characters 06CC366 'cummalativeap.csv'
    ##  3681  ID no trailing characters 06CC370 'cummalativeap.csv'
    ##  3682  ID no trailing characters 06CC370 'cummalativeap.csv'
    ## 11165  ID no trailing characters 24SOP02 'cummalativeap.csv'
    ## ..... ... ...................... ....... ...................
    ## See problems(...) for more details.

``` r
ap_data
```

    ## # A tibble: 16,610 x 5
    ##    `Lea State` LEA                               ID Category               Total
    ##    <chr>       <chr>                          <dbl> <chr>                  <dbl>
    ##  1 AZ          Cave Creek Unified District   400001 Enrollment in AP clas~   523
    ##  2 AZ          Cave Creek Unified District   400001 Taking AP tests for s~   524
    ##  3 AZ          Chino Valley Unified District 400003 Enrollment in AP clas~    66
    ##  4 AZ          Chino Valley Unified District 400003 Taking AP tests for s~     0
    ##  5 AZ          Ombudsman Educational Servic~ 400811 Enrollment in AP clas~     0
    ##  6 AZ          Ombudsman Educational Servic~ 400811 Taking AP tests for s~     0
    ##  7 AZ          Ash Fork Joint Unified Distr~ 400910 Enrollment in AP clas~     0
    ##  8 AZ          Ash Fork Joint Unified Distr~ 400910 Taking AP tests for s~     0
    ##  9 AZ          Bisbee Unified District       401180 Enrollment in AP clas~     0
    ## 10 AZ          Bisbee Unified District       401180 Taking AP tests for s~     0
    ## # ... with 16,600 more rows

Going to pivot the table so that each category becomes its own separate
column and rename the columns to shorter names

``` r
ap_fixed <- ap_data %>% pivot_wider(names_from = Category, values_from = Total) %>%
  rename(
    AP_Enrollment = 'Enrollment in AP classes',
    AP_Test_Takers = 'Taking AP tests for some AP courses taken'
  )
ap_fixed
```

    ## # A tibble: 8,305 x 5
    ##    `Lea State` LEA                               ID AP_Enrollment AP_Test_Takers
    ##    <chr>       <chr>                          <dbl>         <dbl>          <dbl>
    ##  1 AZ          Cave Creek Unified District   400001           523            524
    ##  2 AZ          Chino Valley Unified District 400003            66              0
    ##  3 AZ          Ombudsman Educational Servic~ 400811             0              0
    ##  4 AZ          Ash Fork Joint Unified Distr~ 400910             0              0
    ##  5 AZ          Bisbee Unified District       401180             0              0
    ##  6 AZ          Buckeye Union High School Di~ 401410           236              0
    ##  7 AZ          Sierra Vista Unified District 401460           260            195
    ##  8 AZ          Camp Verde Unified District   401600            18             16
    ##  9 AZ          Catalina Foothills Unified D~ 401760           555            371
    ## 10 AZ          Chandler Unified District #80 401870          4847           3553
    ## # ... with 8,295 more rows

Creating a final column with proportion of those enrolled in ap courses
that took the test.

``` r
ap_new_column <- mutate(ap_fixed, Takers_Proportion = AP_Test_Takers / AP_Enrollment)
ap_new_column
```

    ## # A tibble: 8,305 x 6
    ##    `Lea State` LEA              ID AP_Enrollment AP_Test_Takers Takers_Proporti~
    ##    <chr>       <chr>         <dbl>         <dbl>          <dbl>            <dbl>
    ##  1 AZ          Cave Creek ~ 400001           523            524            1.00 
    ##  2 AZ          Chino Valle~ 400003            66              0            0    
    ##  3 AZ          Ombudsman E~ 400811             0              0          NaN    
    ##  4 AZ          Ash Fork Jo~ 400910             0              0          NaN    
    ##  5 AZ          Bisbee Unif~ 401180             0              0          NaN    
    ##  6 AZ          Buckeye Uni~ 401410           236              0            0    
    ##  7 AZ          Sierra Vist~ 401460           260            195            0.75 
    ##  8 AZ          Camp Verde ~ 401600            18             16            0.889
    ##  9 AZ          Catalina Fo~ 401760           555            371            0.668
    ## 10 AZ          Chandler Un~ 401870          4847           3553            0.733
    ## # ... with 8,295 more rows

Have to fix the NaN columns to a 0 since that is what they should
actually be.

``` r
final_ap <- replace(ap_new_column, is.na(ap_new_column), 0)
final_ap
```

    ## # A tibble: 8,305 x 6
    ##    `Lea State` LEA              ID AP_Enrollment AP_Test_Takers Takers_Proporti~
    ##    <chr>       <chr>         <dbl>         <dbl>          <dbl>            <dbl>
    ##  1 AZ          Cave Creek ~ 400001           523            524            1.00 
    ##  2 AZ          Chino Valle~ 400003            66              0            0    
    ##  3 AZ          Ombudsman E~ 400811             0              0            0    
    ##  4 AZ          Ash Fork Jo~ 400910             0              0            0    
    ##  5 AZ          Bisbee Unif~ 401180             0              0            0    
    ##  6 AZ          Buckeye Uni~ 401410           236              0            0    
    ##  7 AZ          Sierra Vist~ 401460           260            195            0.75 
    ##  8 AZ          Camp Verde ~ 401600            18             16            0.889
    ##  9 AZ          Catalina Fo~ 401760           555            371            0.668
    ## 10 AZ          Chandler Un~ 401870          4847           3553            0.733
    ## # ... with 8,295 more rows
…
    ## 
    ## -- Column specification --------------------------------------------------------
    ## cols(
    ##   `Lea State` = col_character(),
    ##   LEA = col_character(),
    ##   ID = col_character(),
    ##   Sex = col_character(),
    ##   Total = col_double()
    ## )

``` r
testing_data
```

    ## # A tibble: 17,394 x 5
    ##    `Lea State` LEA                            ID      Sex   Total
    ##    <chr>       <chr>                          <chr>   <chr> <dbl>
    ##  1 NH          Franklin School District       3303090 M        21
    ##  2 NH          Franklin School District       3303090 F        25
    ##  3 NH          Moultonborough School District 3304960 M        15
    ##  4 NH          Moultonborough School District 3304960 F        14
    ##  5 MA          Lynnfield                      2507140 M        88
    ##  6 MA          Lynnfield                      2507140 F       122
    ##  7 MA          Medfield                       2507530 M       159
    ##  8 MA          Medfield                       2507530 F       146
    ##  9 MA          Sharon                         2510620 M       265
    ## 10 MA          Sharon                         2510620 F       251
    ## # ... with 17,384 more rows
Make sure that the districts are all grouped together then summarize the
testing data down to one value to get rid of the genders.

``` r
final_testing <- testing_data %>% group_by(LEA, ID) %>%
  summarise(Total_Test = sum(Total))
```

    ## `summarise()` has grouped output by 'LEA'. You can override using the `.groups` argument.

``` r
final_testing
```

    ## # A tibble: 8,697 x 3
    ## # Groups:   LEA [8,522]
    ##    LEA                              ID      Total_Test
    ##    <chr>                            <chr>        <dbl>
    ##  1 A-C Central CUSD 262             1700105         30
    ##  2 A.C.G.C. PUBLIC SCHOOL DISTRICT  2700106         46
    ##  3 Abbeville County School District 4500690        171
    ##  4 Abbotsford School District       5500030          0
    ##  5 ABC Unified                      601620         274
    ##  6 ABERDEEN DISTRICT                1600030         33
    ##  7 ABERDEEN SCHOOL DIST             2800360         84
    ##  8 Aberdeen School District         5300030         64
    ##  9 Aberdeen School District 06-1    4602070        472
    ## 10 ABERNATHY ISD                    4807410         40
    ## # ... with 8,687 more rows
…
    ## 
    ## -- Column specification --------------------------------------------------------
    ## cols(
    ##   `Lea State` = col_character(),
    ##   LEA = col_character(),
    ##   ID = col_character(),
    ##   Category = col_character(),
    ##   Total = col_double()
    ## )

``` r
teaching_data
```

    ## # A tibble: 43,485 x 5
    ##    `Lea State` LEA       ID     Category                                   Total
    ##    <chr>       <chr>     <chr>  <chr>                                      <dbl>
    ##  1 MA          Fairhaven 25048~ Classroom Teachers                        148.  
    ##  2 MA          Fairhaven 25048~ Classroom teachers in their first year o~   0   
    ##  3 MA          Fairhaven 25048~ Classroom teachers in their second year ~   0   
    ##  4 MA          Fairhaven 25048~ Teachers absent more than 10 days of the~  16.0 
    ##  5 MA          Fairhaven 25048~ High-School Counselors                      5   
    ##  6 MA          Sudbury   25113~ Classroom Teachers                        208.  
    ##  7 MA          Sudbury   25113~ Classroom teachers in their first year o~   2   
    ##  8 MA          Sudbury   25113~ Classroom teachers in their second year ~   8   
    ##  9 MA          Sudbury   25113~ Teachers absent more than 10 days of the~ 107   
    ## 10 MA          Sudbury   25113~ High-School Counselors                      7.51
    ## # ... with 43,475 more rows
Pivot the table for the categories to be turned into columns.

``` r
teaching_fixed <- teaching_data %>% pivot_wider(names_from = Category, values_from = Total) %>%
  rename(
    Total_Teachers = 'Classroom Teachers',
    First_Year = 'Classroom teachers in their first year of teaching',
    Second_Year = 'Classroom teachers in their second year of teaching',
    Chronic_Absent_Teachers = 'Teachers absent more than 10 days of the school year',
    Counselors = 'High-School Counselors'
  )
teaching_fixed
```

    ## # A tibble: 8,697 x 8
    ##    `Lea State` LEA   ID    Total_Teachers First_Year Second_Year
    ##    <chr>       <chr> <chr>          <dbl>      <dbl>       <dbl>
    ##  1 MA          Fair~ 2504~           148.       0            0  
    ##  2 MA          Sudb~ 2511~           208.       2            8  
    ##  3 NH          Some~ 3306~           130.      15.5         16  
    ##  4 MA          Tyng~ 2511~           136.       7            5.2
    ##  5 NH          Timb~ 3306~           316.      12.6         11  
    ##  6 ME          Wins~ 2313~            97        6            4  
    ##  7 CT          EAST~ 9012~           519       40           36  
    ##  8 RI          Cent~ 4400~           243.      14            6  
    ##  9 MA          Ames~ 2501~           187.       0.69        19.5
    ## 10 CT          TOLL~ 9045~           193.       5            3  
    ## # ... with 8,687 more rows, and 2 more variables:
    ## #   Chronic_Absent_Teachers <dbl>, Counselors <dbl>

Create columns with proportion of new teachers (ones in their first and
second year) and proportion of teachers chronically absent. Then
removing any districts with an NaN because this would mean they have no
teachers (yes I found that one district had 0 teachers).

``` r
final_teaching <- mutate(teaching_fixed, New_Teachers_Proportion = (First_Year + Second_Year) / Total_Teachers, Absent_Teacher_Proportion = Chronic_Absent_Teachers / Total_Teachers)
final_teaching <- na.omit(final_teaching)
final_teaching
```

    ## # A tibble: 8,696 x 10
    ##    `Lea State` LEA   ID    Total_Teachers First_Year Second_Year
    ##    <chr>       <chr> <chr>          <dbl>      <dbl>       <dbl>
    ##  1 MA          Fair~ 2504~           148.       0            0  
    ##  2 MA          Sudb~ 2511~           208.       2            8  
    ##  3 NH          Some~ 3306~           130.      15.5         16  
    ##  4 MA          Tyng~ 2511~           136.       7            5.2
    ##  5 NH          Timb~ 3306~           316.      12.6         11  
    ##  6 ME          Wins~ 2313~            97        6            4  
    ##  7 CT          EAST~ 9012~           519       40           36  
    ##  8 RI          Cent~ 4400~           243.      14            6  
    ##  9 MA          Ames~ 2501~           187.       0.69        19.5
    ## 10 CT          TOLL~ 9045~           193.       5            3  
    ## # ... with 8,686 more rows, and 4 more variables:
    ## #   Chronic_Absent_Teachers <dbl>, Counselors <dbl>,
    ## #   New_Teachers_Proportion <dbl>, Absent_Teacher_Proportion <dbl>
…
