…
    ## 
    ## -- Column specification --------------------------------------------------------
    ## cols(
    ##   .default = col_double(),
    ##   `Lea State.x` = col_character(),
    ##   LEA.x = col_character()
    ## )
    ## i Use `spec()` for the full column specifications.

``` r
project_data
```

    ## # A tibble: 2,793 x 39
    ##       X1 `Unnamed: 0`     ID `Lea State.x` LEA.x Area_Population
    ##    <dbl>        <dbl>  <dbl> <chr>         <chr>           <dbl>
    ##  1  1230         1231 1.70e6 IL            A-C ~            2398
    ##  2  1231         1232 1.70e6 IL            Abin~            5845
    ##  3  1232         1233 1.70e6 IL            Alde~            3098
    ##  4  1233         1234 1.70e6 IL            Alto~           48443
    ##  5  1234         1235 1.70e6 IL            Anna~            2037
    ##  6  1235         1236 1.70e6 IL            Anti~           45054
    ##  7  1236         1237 1.70e6 IL            Arge~            5646
    ##  8  1237         1238 1.70e6 IL            Arth~            9942
    ##  9  1238         1239 1.70e6 IL            Asto~            1988
    ## 10  1239         1240 1.70e6 IL            Athe~            5515
    ## # ... with 2,783 more rows, and 33 more variables: Children_Poverty <dbl>,
    ## #   Poverty_Proportion <dbl>, Student_Prop <dbl>, District_Population <dbl>,
    ## #   Non_White_Students <dbl>, New_Teachers_Proportion <dbl>,
    ## #   Absent_Teacher_Proportion <dbl>, Counselor_Ratio <dbl>,
    ## #   Student_Teacher_Ratio <dbl>, Absent_Prop <dbl>, Test_Prop <dbl>,
    ## #   Teams_Prop <dbl>, Athletes_Prop <dbl>, Takers_Proportion <dbl>,
    ## #   AP_Prop <dbl>, AVG_Suspenion <dbl>, Expulsion_Prop <dbl>,
    ## #   Police_Prop <dbl>, Race_Disc <dbl>, Race_Reports <dbl>, Gender_Disc <dbl>,
    ## #   Gender_Reports <dbl>, Alg1 <dbl>, Alg2 <dbl>, Geo <dbl>, AdvMath <dbl>,
…
