…
    ## 
    ## -- Column specification --------------------------------------------------------
    ## cols(
    ##   .default = col_double(),
    ##   `Lea State.x` = col_character(),
    ##   LEA.x = col_character()
    ## )
    ## i Use `spec()` for the full column specifications.

``` r
project_data
```

    ## # A tibble: 1,474 x 39
    ##       X1 `Unnamed: 0`     ID `Lea State.x` LEA.x Area_Population
    ##    <dbl>        <dbl>  <dbl> <chr>         <chr>           <dbl>
    ##  1   818          819 900060 CT            Anso~           19210
    ##  2   819          820 900120 CT            Avon~           18118
    ##  3   820          821 900210 CT            Berl~           19903
    ##  4   821          822 900270 CT            Beth~           19249
    ##  5   822          823 900330 CT            Bloo~           20511
    ##  6   823          824 900360 CT            Bolt~            4936
    ##  7   824          825 900420 CT            Bran~           27960
    ##  8   825          826 900450 CT            Brid~          149439
    ##  9   826          827 900510 CT            Bris~           60566
    ## 10   827          828 900540 CT            Broo~           17036
    ## # ... with 1,464 more rows, and 33 more variables: Children_Poverty <dbl>,
    ## #   Poverty_Proportion <dbl>, Student_Prop <dbl>, District_Population <dbl>,
    ## #   Non_White_Students <dbl>, New_Teachers_Proportion <dbl>,
    ## #   Absent_Teacher_Proportion <dbl>, Counselor_Ratio <dbl>,
    ## #   Student_Teacher_Ratio <dbl>, Absent_Prop <dbl>, Test_Prop <dbl>,
    ## #   Teams_Prop <dbl>, Athletes_Prop <dbl>, Takers_Proportion <dbl>,
    ## #   AP_Prop <dbl>, AVG_Suspenion <dbl>, Expulsion_Prop <dbl>,
    ## #   Police_Prop <dbl>, Race_Disc <dbl>, Race_Reports <dbl>, Gender_Disc <dbl>,
    ## #   Gender_Reports <dbl>, Alg1 <dbl>, Alg2 <dbl>, Geo <dbl>, AdvMath <dbl>,
…
