…
    ## 
    ## -- Column specification --------------------------------------------------------
    ## cols(
    ##   .default = col_double(),
    ##   `Lea State.x` = col_character(),
    ##   LEA.x = col_character()
    ## )
    ## i Use `spec()` for the full column specifications.

``` r
project_data
```

    ## # A tibble: 2,215 x 39
    ##       X1 `Unnamed: 0`     ID `Lea State.x` LEA.x Area_Population
    ##    <dbl>        <dbl>  <dbl> <chr>         <chr>           <dbl>
    ##  1     0            1 100190 AL            Alab~           34015
    ##  2     1            2 100005 AL            Albe~           21786
    ##  3     2            3 100030 AL            Alex~           17073
    ##  4     3            4 100060 AL            Anda~            8854
    ##  5     4            5 100090 AL            Anni~           22350
    ##  6     5            6 100100 AL            Arab~            8305
    ##  7     6            7 100120 AL            Athe~           24963
    ##  8     7            8 100180 AL            Atta~            5952
    ##  9     8            9 100210 AL            Aubu~           61570
    ## 10     9           10 100240 AL            Auta~           55504
    ## # ... with 2,205 more rows, and 33 more variables: Children_Poverty <dbl>,
    ## #   Poverty_Proportion <dbl>, Student_Prop <dbl>, District_Population <dbl>,
    ## #   Non_White_Students <dbl>, New_Teachers_Proportion <dbl>,
    ## #   Absent_Teacher_Proportion <dbl>, Counselor_Ratio <dbl>,
    ## #   Student_Teacher_Ratio <dbl>, Absent_Prop <dbl>, Test_Prop <dbl>,
    ## #   Teams_Prop <dbl>, Athletes_Prop <dbl>, Takers_Proportion <dbl>,
    ## #   AP_Prop <dbl>, AVG_Suspenion <dbl>, Expulsion_Prop <dbl>,
    ## #   Police_Prop <dbl>, Race_Disc <dbl>, Race_Reports <dbl>, Gender_Disc <dbl>,
    ## #   Gender_Reports <dbl>, Alg1 <dbl>, Alg2 <dbl>, Geo <dbl>, AdvMath <dbl>,
…
