…
    ## 
    ## -- Column specification --------------------------------------------------------
    ## cols(
    ##   .default = col_double(),
    ##   `Lea State.x` = col_character(),
    ##   LEA.x = col_character()
    ## )
    ## i Use `spec()` for the full column specifications.

``` r
project_data
```

    ## # A tibble: 7,577 x 38
    ##       X1     ID `Lea State.x` LEA.x Area_Population Children_Poverty
    ##    <dbl>  <dbl> <chr>         <chr>           <dbl>            <dbl>
    ##  1     1 100190 AL            Alab~           34015              860
    ##  2     2 100005 AL            Albe~           21786             1546
    ##  3     3 100030 AL            Alex~           17073              832
    ##  4     4 100060 AL            Anda~            8854              386
    ##  5     5 100090 AL            Anni~           22350             1106
    ##  6     6 100100 AL            Arab~            8305              329
    ##  7     7 100120 AL            Athe~           24963              685
    ##  8     8 100180 AL            Atta~            5952              280
    ##  9     9 100210 AL            Aubu~           61570              888
    ## 10    10 100240 AL            Auta~           55504             1842
    ## # ... with 7,567 more rows, and 32 more variables: Poverty_Proportion <dbl>,
    ## #   Student_Prop <dbl>, District_Population <dbl>, Non_White_Students <dbl>,
    ## #   New_Teachers_Proportion <dbl>, Absent_Teacher_Proportion <dbl>,
    ## #   Counselor_Ratio <dbl>, Student_Teacher_Ratio <dbl>, Absent_Prop <dbl>,
    ## #   Test_Prop <dbl>, Teams_Prop <dbl>, Athletes_Prop <dbl>,
    ## #   Takers_Proportion <dbl>, AP_Prop <dbl>, AVG_Suspenion <dbl>,
    ## #   Expulsion_Prop <dbl>, Police_Prop <dbl>, Race_Disc <dbl>,
    ## #   Race_Reports <dbl>, Gender_Disc <dbl>, Gender_Reports <dbl>, Alg1 <dbl>,
    ## #   Alg2 <dbl>, Geo <dbl>, AdvMath <dbl>, Calc <dbl>, Bio <dbl>, Chem <dbl>,
…
