…
    ## 
    ## -- Column specification --------------------------------------------------------
    ## cols(
    ##   .default = col_double(),
    ##   `Lea State.x` = col_character(),
    ##   LEA.x = col_character()
    ## )
    ## i Use `spec()` for the full column specifications.

``` r
project_data
```

    ## # A tibble: 1,094 x 39
    ##       X1 `Unnamed: 0`     ID `Lea State.x` LEA.x Area_Population
    ##    <dbl>        <dbl>  <dbl> <chr>         <chr>           <dbl>
    ##  1   124          125 200050 AK            Alas~            2295
    ##  2   125          126 200007 AK            Aleu~            3370
    ##  3   126          127 200180 AK            Anch~          294356
    ##  4   127          128 200525 AK            Anne~            1525
    ##  5   128          129 200020 AK            Beri~            6164
    ##  6   129          130 200030 AK            Bris~             867
    ##  7   130          131 200730 AK            Chat~            1291
    ##  8   131          132 200800 AK            Chug~             451
    ##  9   132          133 200070 AK            Copp~            2721
    ## 10   133          134 200090 AK            Crai~            1254
    ## # ... with 1,084 more rows, and 33 more variables: Children_Poverty <dbl>,
    ## #   Poverty_Proportion <dbl>, Student_Prop <dbl>, District_Population <dbl>,
    ## #   Non_White_Students <dbl>, New_Teachers_Proportion <dbl>,
    ## #   Absent_Teacher_Proportion <dbl>, Counselor_Ratio <dbl>,
    ## #   Student_Teacher_Ratio <dbl>, Absent_Prop <dbl>, Test_Prop <dbl>,
    ## #   Teams_Prop <dbl>, Athletes_Prop <dbl>, Takers_Proportion <dbl>,
    ## #   AP_Prop <dbl>, AVG_Suspenion <dbl>, Expulsion_Prop <dbl>,
    ## #   Police_Prop <dbl>, Race_Disc <dbl>, Race_Reports <dbl>, Gender_Disc <dbl>,
    ## #   Gender_Reports <dbl>, Alg1 <dbl>, Alg2 <dbl>, Geo <dbl>, AdvMath <dbl>,
…
